account_id,security_id,quantity,lot_date,price
123,321,100,10/01/2019,98.72
123,333,50,10/01/2019,77.72
123,333,50,08/08/2019,70.25
123,333,50,04/05/2019,81.66
123,333,50,01/06/2019,81.66
124,321,150,09/21/2019,97.72
124,321,250,07/18/2019,90.25
124,321,350,02/25/2019,91.66
